<svg width="32" height="32" viewBox="0 0 32 32" fill="none" xmlns="http://www.w3.org/2000/svg">
<path fill-rule="evenodd" clip-rule="evenodd" d="M16 27.4286C22.3118 27.4286 27.4286 22.3118 27.4286 16C27.4286 9.68817 22.3118 4.57143 16 4.57143C9.68817 4.57143 4.57143 9.68817 4.57143 16C4.57143 22.3118 9.68817 27.4286 16 27.4286ZM16 29.7143C23.5742 29.7143 29.7143 23.5742 29.7143 16C29.7143 8.42581 23.5742 2.28571 16 2.28571C8.42581 2.28571 2.28571 8.42581 2.28571 16C2.28571 23.5742 8.42581 29.7143 16 29.7143Z" fill="white"/>
<path d="M17.1429 16C17.1429 16.6312 16.6312 17.1429 16 17.1429C15.3688 17.1429 14.8571 16.6312 14.8571 16C14.8571 15.3688 15.3688 14.8571 16 14.8571C16.6312 14.8571 17.1429 15.3688 17.1429 16Z" fill="white"/>
<path d="M0 15.4286C0 15.113 0.255837 14.8571 0.571429 14.8571H5.14286C5.45845 14.8571 5.71429 15.113 5.71429 15.4286V16.5714C5.71429 16.887 5.45845 17.1429 5.14286 17.1429H0.571429C0.255837 17.1429 0 16.887 0 16.5714V15.4286Z" fill="white"/>
<path d="M26.2857 15.4286C26.2857 15.113 26.5416 14.8571 26.8571 14.8571H31.4286C31.7442 14.8571 32 15.113 32 15.4286V16.5714C32 16.887 31.7442 17.1429 31.4286 17.1429H26.8571C26.5416 17.1429 26.2857 16.887 26.2857 16.5714V15.4286Z" fill="white"/>
<path d="M16.5714 4.99559e-08C16.887 6.37509e-08 17.1429 0.255837 17.1429 0.571429V5.14286C17.1429 5.45845 16.887 5.71429 16.5714 5.71429H15.4286C15.113 5.71429 14.8571 5.45845 14.8571 5.14286V0.571429C14.8571 0.255837 15.113 -1.37949e-08 15.4286 0L16.5714 4.99559e-08Z" fill="white"/>
<path d="M16.5714 26.2857C16.887 26.2857 17.1429 26.5416 17.1429 26.8571V31.4286C17.1429 31.7442 16.887 32 16.5714 32H15.4286C15.113 32 14.8571 31.7442 14.8571 31.4286V26.8571C14.8571 26.5416 15.113 26.2857 15.4286 26.2857H16.5714Z" fill="white"/>
</svg>
