<svg width="26" height="23" viewBox="0 0 26 23" fill="none" xmlns="http://www.w3.org/2000/svg">
<path d="M12.804 3.98827C13.0576 3.76009 13.4424 3.76009 13.696 3.98827L19.696 9.38827C19.8364 9.5147 19.9167 9.69481 19.9167 9.8838V19.6669C19.9167 19.851 19.7674 20.0002 19.5833 20.0002H17.5833C17.3992 20.0002 17.25 19.851 17.25 19.6669V12.6669C17.25 12.2987 16.9515 12.0002 16.5833 12.0002H9.91666C9.54847 12.0002 9.25 12.2987 9.25 12.6669V19.6669C9.25 19.851 9.10076 20.0002 8.91666 20.0002H6.91666C6.73257 20.0002 6.58333 19.851 6.58333 19.6669V9.8838C6.58333 9.69481 6.66354 9.5147 6.80402 9.38827L12.804 3.98827ZM13.696 0.401606C13.4424 0.173423 13.0576 0.173423 12.804 0.401606L1.20799 10.838C0.753849 11.2468 1.04298 12.0002 1.65397 12.0002H3.91666V22.0002C3.91666 22.3684 4.21514 22.6669 4.58333 22.6669H11.25C11.6182 22.6669 11.9167 22.3684 11.9167 22.0002V14.6669H14.5833V22.0002C14.5833 22.3684 14.8818 22.6669 15.25 22.6669H21.9167C22.2849 22.6669 22.5833 22.3684 22.5833 22.0002V12.0002H24.846C25.457 12.0002 25.7461 11.2468 25.292 10.838L13.696 0.401606Z" fill="#0AC898"/>
</svg>
