<svg width="336" height="90" viewBox="0 0 336 90" fill="none" xmlns="http://www.w3.org/2000/svg">
<path d="M123.582 83.7096C122.64 83.7096 121.822 83.5695 121.127 83.2891C120.446 82.9948 119.816 82.5393 119.237 81.9225V83.3943H117.108V67.8569H119.302V74.6479C119.78 74.1013 120.395 73.6878 121.148 73.4075C121.901 73.1271 122.713 72.987 123.582 72.987C124.624 72.987 125.558 73.2182 126.384 73.6808C127.224 74.1293 127.876 74.7601 128.339 75.573C128.817 76.386 129.056 77.3181 129.056 78.3693C129.056 79.4346 128.817 80.3737 128.339 81.1867C127.876 81.9856 127.224 82.6093 126.384 83.0579C125.558 83.4924 124.624 83.7096 123.582 83.7096ZM123.082 82.0277C123.792 82.0277 124.429 81.8805 124.994 81.5861C125.573 81.2778 126.022 80.8433 126.341 80.2826C126.674 79.7219 126.84 79.0842 126.84 78.3693C126.84 77.6545 126.674 77.0167 126.341 76.4561C126.022 75.8954 125.573 75.4609 124.994 75.1525C124.429 74.8442 123.792 74.69 123.082 74.69C122.198 74.69 121.409 74.9212 120.714 75.3838C120.019 75.8463 119.548 76.4631 119.302 77.234V79.5047C119.577 80.2756 120.048 80.8923 120.714 81.3549C121.395 81.8034 122.184 82.0277 123.082 82.0277Z" fill="white"/>
<path d="M132.244 87.5572C131.462 87.5572 130.81 87.4801 130.289 87.3259V85.665C130.665 85.8051 131.129 85.8752 131.679 85.8752C132.186 85.8752 132.584 85.7491 132.874 85.4968C133.163 85.2585 133.424 84.866 133.656 84.3194L134.156 83.142L129.593 73.3023H131.853L135.329 81.0605L138.566 73.3023H140.825L136.132 84.5296C135.698 85.5809 135.177 86.3448 134.568 86.8213C133.974 87.3119 133.2 87.5572 132.244 87.5572Z" fill="white"/>
<path d="M150.385 73.3023H152.709L155.772 80.5559L158.836 73.3023H161.16L156.728 83.3943H154.816L150.385 73.3023Z" fill="white"/>
<path d="M166.309 83.7096C165.049 83.7096 164.035 83.4013 163.268 82.7846C162.515 82.1538 162.138 81.3058 162.138 80.2405C162.138 79.1192 162.5 78.2572 163.224 77.6545C163.963 77.0377 165.006 76.7294 166.353 76.7294C167.786 76.7294 169.003 77.0097 170.002 77.5704V77.0448C170.002 76.2458 169.749 75.6571 169.242 75.2787C168.75 74.8862 167.967 74.69 166.896 74.69C166.258 74.69 165.636 74.753 165.027 74.8792C164.434 74.9913 163.898 75.1525 163.42 75.3628V73.6387C163.854 73.4425 164.419 73.2883 165.114 73.1762C165.809 73.05 166.483 72.987 167.135 72.987C168.858 72.987 170.133 73.3584 170.958 74.1013C171.798 74.8301 172.218 75.8463 172.218 77.1499V83.3943H170.154V82.2589C169.705 82.7355 169.17 83.0999 168.547 83.3522C167.939 83.5905 167.193 83.7096 166.309 83.7096ZM166.852 82.0907C167.547 82.0907 168.177 81.9576 168.742 81.6913C169.307 81.4249 169.727 81.0535 170.002 80.5769V79.2103C169.061 78.6216 168.011 78.3273 166.852 78.3273C166.012 78.3273 165.382 78.4885 164.962 78.8108C164.557 79.1192 164.354 79.5958 164.354 80.2405C164.354 81.474 165.187 82.0907 166.852 82.0907Z" fill="white"/>
<path d="M174.941 73.3023H177.07V75.1105C177.505 74.4937 178.113 74.0382 178.895 73.7438C179.692 73.4495 180.611 73.3023 181.654 73.3023V74.9633C180.539 74.9633 179.583 75.1385 178.786 75.4889C177.99 75.8393 177.44 76.393 177.135 77.1499V83.3943H174.941V73.3023Z" fill="white"/>
<path d="M187.662 83.7096C186.257 83.7096 185.192 83.3452 184.468 82.6164C183.758 81.8875 183.404 80.9133 183.404 79.6939V73.3023H185.598V79.6098C185.598 81.2217 186.431 82.0277 188.096 82.0277C189.559 82.0277 190.703 81.3899 191.529 80.1144V73.3023H193.723V83.3943H191.594V81.9646C191.101 82.5673 190.515 83.0088 189.834 83.2891C189.168 83.5695 188.444 83.7096 187.662 83.7096Z" fill="white"/>
<path d="M196.539 73.3023H198.668V74.753C199.16 74.1503 199.761 73.7088 200.471 73.4285C201.195 73.1341 201.948 72.987 202.73 72.987C204.121 72.987 205.156 73.3444 205.837 74.0592C206.518 74.7741 206.858 75.7342 206.858 76.9396V83.3943H204.664V77.1499C204.664 75.5099 203.853 74.69 202.231 74.69C201.535 74.69 200.884 74.8512 200.275 75.1735C199.681 75.4819 199.167 75.9585 198.733 76.6032V83.3943H196.539V73.3023Z" fill="white"/>
<path d="M212.983 83.7096C211.723 83.7096 210.71 83.4013 209.942 82.7846C209.189 82.1538 208.812 81.3058 208.812 80.2405C208.812 79.1192 209.174 78.2572 209.898 77.6545C210.637 77.0377 211.68 76.7294 213.027 76.7294C214.461 76.7294 215.677 77.0097 216.677 77.5704V77.0448C216.677 76.2458 216.423 75.6571 215.916 75.2787C215.424 74.8862 214.642 74.69 213.57 74.69C212.933 74.69 212.31 74.753 211.702 74.8792C211.108 74.9913 210.572 75.1525 210.094 75.3628V73.6387C210.529 73.4425 211.093 73.2883 211.789 73.1762C212.484 73.05 213.157 72.987 213.809 72.987C215.532 72.987 216.807 73.3584 217.633 74.1013C218.473 74.8301 218.893 75.8463 218.893 77.1499V83.3943H216.829V82.2589C216.38 82.7355 215.844 83.0999 215.221 83.3522C214.613 83.5905 213.867 83.7096 212.983 83.7096ZM213.527 82.0907C214.222 82.0907 214.852 81.9576 215.417 81.6913C215.981 81.4249 216.401 81.0535 216.677 80.5769V79.2103C215.735 78.6216 214.685 78.3273 213.527 78.3273C212.687 78.3273 212.056 78.4885 211.636 78.8108C211.231 79.1192 211.028 79.5958 211.028 80.2405C211.028 81.474 211.861 82.0907 213.527 82.0907Z" fill="white"/>
<path fill-rule="evenodd" clip-rule="evenodd" d="M60.5594 10.5866L10.7044 60.5324C6.77235 64.4732 0 61.7078 0 56.1595V6.2137C0 2.77989 2.80285 0 6.2596 0H56.1117C61.6742 0 64.4741 6.66597 60.5594 10.5866Z" fill="white"/>
<path fill-rule="evenodd" clip-rule="evenodd" d="M83.4172 89.3067L11.8794 89.7454C6.20015 89.782 3.33004 83.1447 7.34645 79.2665L43.3432 44.4829C45.8244 42.0839 49.8466 42.0839 52.3307 44.4829L87.8718 78.8249C91.8621 82.6779 89.0617 89.2701 83.4201 89.3067H83.4172Z" fill="white"/>
<path fill-rule="evenodd" clip-rule="evenodd" d="M89.7458 49.6409C89.7825 55.1162 82.9616 57.8834 78.9737 54.011L60.9477 36.508C58.4854 34.1149 58.4854 30.2369 60.9477 27.8437L78.7445 10.5629C82.7069 6.71589 89.4825 9.41557 89.5165 14.8543L89.7458 49.6381V49.6409Z" fill="#92D59F"/>
<path d="M115.824 14.914H121.469V54.8055H115.824V14.914ZM121.746 34.4889L139.401 14.914H146.265L128.61 34.4889L147.373 54.8055H140.509L121.746 34.4889Z" fill="white"/>
<path d="M208.314 14.9139H213.683L233.385 44.9891V14.9139H239.085V54.8053H233.661L213.958 24.7302V54.8053H208.312V14.9139H208.314Z" fill="white"/>
<path d="M254.557 14.9139H259.926L279.629 44.9891V14.9139H285.329V54.8053H279.905L260.202 24.7302V54.8053H254.555V14.9139H254.557Z" fill="white"/>
<path d="M304.216 54.8029H298.143L314.339 14.9114H320.007L336 54.8029H329.927L317.173 21.0188L304.214 54.8029H304.216Z" fill="white"/>
<path d="M162.425 54.8029H156.671L172.015 14.9114H177.386L192.538 54.8029H186.785L174.702 21.0188L162.427 54.8029H162.425Z" fill="white"/>
<defs>
<linearGradient id="paint0_linear_1482_29292" x1="74.4226" y1="8.76034" x2="74.4226" y2="55.8192" gradientUnits="userSpaceOnUse">
<stop stop-color="#92D59F"/>
<stop offset="1" stop-color="#72D0C4"/>
</linearGradient>
</defs>
</svg>
