<svg width="22" height="22" viewBox="0 0 22 22" fill="none" xmlns="http://www.w3.org/2000/svg">
<path d="M11.25 0.333496C12.6645 0.333496 14.0211 0.895399 15.0213 1.89559C16.0215 2.89579 16.5834 4.25234 16.5834 5.66683C16.5834 7.08132 16.0215 8.43787 15.0213 9.43807C14.0211 10.4383 12.6645 11.0002 11.25 11.0002C9.83555 11.0002 8.479 10.4383 7.4788 9.43807C6.47861 8.43787 5.91671 7.08132 5.91671 5.66683C5.91671 4.25234 6.47861 2.89579 7.4788 1.89559C8.479 0.895399 9.83555 0.333496 11.25 0.333496ZM11.25 3.00016C10.5428 3.00016 9.86452 3.28111 9.36442 3.78121C8.86433 4.28131 8.58337 4.95959 8.58337 5.66683C8.58337 6.37407 8.86433 7.05235 9.36442 7.55245C9.86452 8.05254 10.5428 8.3335 11.25 8.3335C11.9573 8.3335 12.6356 8.05254 13.1357 7.55245C13.6358 7.05235 13.9167 6.37407 13.9167 5.66683C13.9167 4.95959 13.6358 4.28131 13.1357 3.78121C12.6356 3.28111 11.9573 3.00016 11.25 3.00016ZM11.25 12.3335C14.81 12.3335 21.9167 14.1068 21.9167 17.6668V20.3335C21.9167 21.0699 21.3198 21.6668 20.5834 21.6668H1.91671C1.18033 21.6668 0.583374 21.0699 0.583374 20.3335V17.6668C0.583374 14.1068 7.69004 12.3335 11.25 12.3335ZM11.25 14.8668C7.29004 14.8668 3.11671 16.8135 3.11671 17.6668V18.4668C3.11671 18.835 3.41518 19.1335 3.78337 19.1335H18.7167C19.0849 19.1335 19.3834 18.835 19.3834 18.4668V17.6668C19.3834 16.8135 15.21 14.8668 11.25 14.8668Z" fill="#1A202C"/>
</svg>
